%YAML 1.1
%TAG !u! tag:unity3d.com,2011:
--- !u!114 &11400000
MonoBehaviour:
  m_ObjectHideFlags: 0
  m_CorrespondingSourceObject: {fileID: 0}
  m_PrefabInstance: {fileID: 0}
  m_PrefabAsset: {fileID: 0}
  m_GameObject: {fileID: 0}
  m_Enabled: 1
  m_EditorHideFlags: 0
  m_Script: {fileID: 11500000, guid: dda436a9c8bbd4d109478acf25cd48d8, type: 3}
  m_Name: Tightrope Color Palette
  m_EditorClassIdentifier: 
  m_Colors:
  - {r: 1, g: 1, b: 1, a: 1}
  - {r: 1, g: 0.59836286, b: 0, a: 1}
  - {r: 0.49056602, g: 0.49056602, b: 0.49056602, a: 1}
  - {r: 0.6084906, g: 0.8113208, b: 0.6525841, a: 1}
