%YAML 1.1
%TAG !u! tag:unity3d.com,2011:
--- !u!114 &11400000
MonoBehaviour:
  m_ObjectHideFlags: 0
  m_CorrespondingSourceObject: {fileID: 0}
  m_PrefabInstance: {fileID: 0}
  m_PrefabAsset: {fileID: 0}
  m_GameObject: {fileID: 0}
  m_Enabled: 1
  m_EditorHideFlags: 0
  m_Script: {fileID: 11500000, guid: ae594e3ad2a01d0419bc2482b90b4d83, type: 3}
  m_Name: LimboZone
  m_EditorClassIdentifier: 
  InitialRoom: {fileID: 5478386556579708367, guid: d701cf626e3861e49a05f635e2873303,
    type: 3}
  minInteriorRoomCount: 1
  maxInteriorRoomCount: 2
