%YAML 1.1
%TAG !u! tag:unity3d.com,2011:
--- !u!114 &11400000
MonoBehaviour:
  m_ObjectHideFlags: 0
  m_CorrespondingSourceObject: {fileID: 0}
  m_PrefabInstance: {fileID: 0}
  m_PrefabAsset: {fileID: 0}
  m_GameObject: {fileID: 0}
  m_Enabled: 1
  m_EditorHideFlags: 0
  m_Script: {fileID: 11500000, guid: bda917f0f6ad04b4f85afa4c04151ec5, type: 3}
  m_Name: Hall
  m_EditorClassIdentifier: 
  NextRooms:
  - {fileID: 8856461768297761634, guid: 409d31d074e883c429881f5043ccbf89, type: 3}
  - {fileID: 2161899944480333826, guid: 050e64117a479814781535301a6d81f5, type: 3}
